Fear of the new: a predatory invader provokes stronger non-consumptive effects on a keystone native prey than a native predator
…
Warning: There was 1 warning in `mutate()`.
ℹ In argument: `across(where(is.numeric), round, 3)`.
Caused by warning:
! The `...` argument of `across()` is deprecated as of dplyr 1.1.0.
Supply arguments directly to `.fns` through an anonymous function instead.

  # Previously
  across(a:b, mean, na.rm = TRUE)

  # Now
  across(a:b, \(x) mean(x, na.rm = TRUE))

# A tibble: 64 × 6
   exp_id treatment size_mm1 total_obs refuge_obs prop_refuge
    <int> <chr>        <dbl>     <int>      <int>       <dbl>
 1      1 catfish       27.2        21         20      0.952 
 2      2 eel           26.0        21         15      0.714 
 3      3 control       23.7        21          9      0.429 
 4      4 catfish       24.7        21         21      1     
 5      5 eel           29.5        21          1      0.0476
 6      6 control       24.6        21          8      0.381 
 7      7 catfish       23.8        21         20      0.952 
 8      8 eel           24.2        21         21      1     
 9      9 control       25.8        21          9      0.429 
10     10 catfish       28.5        21         14      0.667 
# ℹ 54 more rows
…
